-------------------------------------------------------------------------------
Test set: com.mardz.prueba_unitaria.CalculadoraTest
-------------------------------------------------------------------------------
Tests run: 2, Failures: 0, Errors: 0, Skipped: 0, Time elapsed: 0.176 sec
